[
  {
    "question": "Was ist das, das im Wasser lebt und noch am Sternenhimmel schwebt? Das im Kalender ruhig ist, sonst aber Menschen plagt und frisst? Schwarz kommt es in die Küchen, rot stehts dann auf den Tischen.",
    "answer": "Krebs",
    "id": 1
  },
  {
    "question": "Klein bin ich, groß und deine Lebensquelle. Ich werd erobert und geraubt, und bleib doch auf derselben Stelle. Auch bin ich noch, von vielen nicht geglaubt, dein Himmel, deine Hölle. Was bin ich?",
    "answer": "Herz",
    "id": 2
  },
  {
    "question": "Ohne Füße eil ich fort im schnellsten Lauf. Höre Tag und Nacht nicht auf und bin doch stets im Bette. Was bin ich?",
    "answer": "Fluss",
    "id": 3
  },
  {
    "question": "Ich mache hart, ich mache weich, ich mache arm, ich mache reich. Kommst du zu nah, wirst du verzehrt, doch sterb ich wo man mich entbehrt. Was bin ich?",
    "answer": "Feuer",
    "id": 4
  },
  {
    "question": "Ich bin am Berg, am Buch, bald höckerig, bald schlicht. Ich geh euch immer nach, ihr aber seht mich nicht. Was bin ich?",
    "answer": "Rücken",
    "id": 5
  },
  {
    "question": "Meine Schale, die ist rund, mal blau, mal rot, mal bunt. Schlägst du auf die Schale drauf, isst du mich mit Freude auf. Was bin ich?",
    "answer": "Osterei",
    "id": 6
  },
  {
    "question": "Im Winter steht er still und stumm dort draußen ganz in weiß herum. Doch fängt die Sonne an zu scheinen, beginnt er bitterlich zu weinen. Wer ist er?",
    "answer": "Schneemann",
    "id": 7
  },
  {
    "question": "Ich wandle mit dir Tag und Nacht, im Sonnen- und im Mondenschein. Auf leisen Sohlen schleich ich sacht, bald vor dir her, bald hinterdrein: hinab ins Tal, hinan den Berg, bald wie ein Riese, bald wie ein Zwerg. Was bin ich?",
    "answer": "Schatten",
    "id": 8
  },
  {
    "question": "Zwei Löcher hab ich, zwei Finger brauch ich. So mache ich Langes und Großes klein und trenne, was nicht soll beisammen sein. Was bin ich?",
    "answer": "Schere",
    "id": 9
  },
  {
    "question": "Alle Tage geh ich aus, bleibe dennoch stets zu Haus. Wer bin ich?",
    "answer": "Schnecke",
    "id": 10
  },
  {
    "question": "Wer es macht, der sagt es nicht. Wer es sagt, der macht es nicht. Wer es nimmt, der kennt es nicht. Wer es kennt, der nimmt es nicht. Was bin ich?",
    "answer": "Falschgeld",
    "id": 11
  },
  {
    "question": "Ich hab zwei Flügel und kann nicht fliegen. Ich hab einen Rücken und kann nicht liegen. Ich hab ein Bein und kann nicht stehen. Oft trag ich Brillen und kann nicht sehen. Was bin ich?",
    "answer": "Nase",
    "id": 12
  },
  {
    "question": "Ich bin die größte Straße zwischen Himmel und Erde. Kein Mensch ist hier gegangen, kein Wagen je gefahren. Und doch herrscht hier zwischen Erde und Himmel ein großes Gewimmel. Was bin ich?",
    "answer": "Milchstraße",
    "id": 13
  },
  {
    "question": "Hab keinen Hals, auch keinen Kopf, nicht Arm, noch Bein, ich armer Tropf. Mal bin ich voll, mal bin ich leer. Doch immer wiegt mein Holz sehr schwer. Was bin ich?",
    "answer": "Fass",
    "id": 14
  },
  {
    "question": "Ich kann vortrefflich malen und lasse fort kein Haar. Das Bild ist fertig schon im Augenblick, wer außer mir hat solch Geschick? Doch einen Fehler mach ich stets: Verwechsle links und rechts. Was bin ich?",
    "answer": "Spiegel",
    "id": 15
  },
  {
    "question": "Freund, lass dir raten, suche mich zu meiden. Denn hast du mich, so hast du Sorg und Leiden. Verlierst du mich, so wird das Herz dir schwer. Gewinnst du mich, so hast du mich nicht mehr. Was bin ich?",
    "answer": "Prozess",
    "id": 16
  },
  {
    "question": "Das ist die wunderschönste Brück, darüber noch kein Mensch gegangen, nicht hin und nicht zurück. Sie steht in sieben Farben da und ist dem Himmel näher noch als nah. Was ist es?",
    "answer": "Regenbogen",
    "id": 17
  },
  {
    "question": "Erst weiß wie Schnee, dann grün wie Klee, dann rot wie Blut. Schmeckt allen gut. Was ist es?",
    "answer": "Kirsche",
    "id": 18
  },
  {
    "question": "Muss Tag und Nacht auf Wache stehn, hat keine Füße und muß doch gehn, hat keine Hände und muß doch schlagen. Was ist es?",
    "answer": "Uhr",
    "id": 19
  },
  {
    "question": "Zwei Augen hab ich, doch seh ich nichts, auch einen Mund, doch spreche ich nicht, hab Ohren, Arme und Beine, doch kann ich nicht gehen und stehen alleine. Liege in meinem Bettchen still, bis man mit mir spielen will. Was bin ich?",
    "answer": "Puppe",
    "id": 20
  },
  {
    "question": "Es rüttelt sich und schüttelt sich und macht ein Häuflein unter sich. Was ist es?",
    "answer": "Sieb",
    "id": 21
  },
  {
    "question": "Ich habe nur ein Angesicht. Es wird erhellt von fremdem Licht. Erhellts mich nicht, das fremde Licht, sieht man mich nicht. Wer bin ich?",
    "answer": "Mond",
    "id": 22
  },
  {
    "question": "Gefertigt ist es vor langer Zeit, doch meistens gemacht erst heut; sehr wichtig ist es für seinen Herrn und dennoch hütets niemand gern. Was ist es?",
    "answer": "Bett",
    "id": 23
  },
  {
    "question": "Was ist groß wie ein Haus, klein wie eine Maus, stachlig wie ein Igel und doch glatt wie ein Spiegel?",
    "answer": "Kastanie",
    "id": 24
  },
  {
    "question": "Die Sprache kann es nicht entbehren, die Zeitung bringt es jeden Tag, der Kaufmann brauchts, will er sich nähren, und selten fehlt es im Vertrag. Was ist es?",
    "answer": "Artikel",
    "id": 25
  },
  {
    "question": "Zwar stand ich schon im Alten Testament, und als Gewicht bin längst ich abgeschafft, doch heute noch mich jeder Seemann kennt, der Maurer auch benötigt meine Kraft. Was bin ich?",
    "answer": "Lot",
    "id": 26
  },
  {
    "question": "Ich habe viele Zähne und doch keinen Mund. Ich bin nicht eckig, sondern rund und drehe mich im Kreise. Wer weiß, wie ich heiße?",
    "answer": "Zahnrad",
    "id": 27
  },
  {
    "question": "Ich steh im Gras an einem Ort. Erst gelb, dann weiß, dann flieg ich fort. Was bin ich?",
    "answer": "Löwenzahn",
    "id": 28
  },
  {
    "question": "Weiß wie Kreide, leicht wie Flaum, weich wie Seide, feucht wie Schaum. Was bin ich?",
    "answer": "Schnee",
    "id": 29
  },
  {
    "question": "Wer hoch will stehen wie ich, nimmt oft zum Muster mich. Es gehe wie es will, ich bin zu allem still, am hellen Tage blind, und dreh mich nach dem Wind. Wer bin ich?",
    "answer": "Wetterhahn",
    "id": 30
  },
  {
    "question": "Die Sonne richt es. Die Hand bricht es. Das Maul isst es. Der Fuß tritt es. Was ist es?",
    "answer": "Weintraube",
    "id": 31
  },
  {
    "question": "Was sieht aus wie eine Katze, miaut wie eine Katze, aber ist keine Katze?",
    "answer": "Kater",
    "id": 32
  },
  {
    "question": "Wenn man mit den Füßen wieder draußen ist, ist man erst richtig drinnen. Was ist es?",
    "answer": "Hose",
    "id": 33
  },
  {
    "question": "Ein kleiner Wicht mit großem Bart das Haus vor Dieben dir bewahrt. Verlier ihn nicht, den kleinen Wicht, dann bleibt der Ärger dir erspart. Wer ist er?",
    "answer": "Schlüssel",
    "id": 34
  }
]
